﻿## Interface: 50200
## X-Min-Interface: 50001
## Title:|cffffe00a<|r|cffff7d0aDBM|r|cffffe00a>|r |cff69ccf0Mogu'shan Vaults|r
## Title-zhTW:|cffffe00a<|r|cffff7d0aDBM|r|cffffe00a>|r |cff69ccf0魔古山寶庫  (MV)|r
## Title-zhCN:|cffffe00a<|r|cffff7d0aDBM|r|cffffe00a>|r |cff69ccf0魔古山宝库|r
## Author: MysticalOS
## LoadOnDemand: 1
## RequiredDeps: DBM-Core
## SavedVariablesPerCharacter: DBMMogushanVaults_SavedVars, DBMMogushanVaults_SavedStats
## X-DBM-Mod: 1
## X-DBM-Mod-Type: RAID
## X-DBM-Mod-Category: MOP
## X-DBM-Mod-Has-LFR : 1
## X-DBM-Mod-Name: Mogu'shan Vaults
## X-DBM-Mod-Name-zhTW: 魔古山寶庫  (MV)
## X-DBM-Mod-Name-zhCN: 魔古山宝库
## X-DBM-Mod-Sort: 4
## X-DBM-Mod-MapID: 1008
## X-DBM-Mod-LoadZoneID: 896
localization.en.lua
localization.tw.lua
localization.cn.lua
StoneGuard.lua
Feng.lua
GarajalTheSpiritbinder.lua
SpiritKings.lua
Elegon.lua
WillofEmperor.lua
