﻿## Interface: 50200
## X-Min-Interface: 50001
## Title:|cffffe00a<|r|cffff7d0aDBM|r|cffffe00a>|r |cff69ccf0Party-MoP|r
## Title-zhCN:|cffffe00a<|r|cffff7d0aDBM|r|cffffe00a>|r |cff69ccf05队伍首领 (潘达利亚)|r
## Title-zhTW:|cffffe00a<|r|cffff7d0aDBM|r|cffffe00a>|r |cff69ccf05隊伍首領 (潘達利亞)|r
## LoadOnDemand: 1
## RequiredDeps: DBM-Core
## SavedVariablesPerCharacter: DBMPartyMoP_SavedVars, DBMPartyMoP_SavedStats
## X-DBM-Mod: 1
## X-DBM-Mod-Type: PARTY
## X-DBM-Mod-Category: MOP
## X-DBM-Mod-Has-Challenge: 1
## X-DBM-Mod-SubCategoriesID: 960, 961, 959, 962, 994, 1011, 1007, 1001, 1004
## X-DBM-Mod-Name: Party (MoP)
## X-DBM-Mod-Name-zhTW: 隊伍首領 (潘達利亞)
## X-DBM-Mod-Name-zhCN: 队伍首领 (潘达利亚)
## X-DBM-Mod-Sort: 25
## X-DBM-Mod-LoadZoneID: 867, 876, 877, 875, 885, 887, 898, 871, 874
localization.en.lua
localization.tw.lua
localization.cn.lua
JadeSerpentTemple\WiseMari.lua
JadeSerpentTemple\LibraryEvent.lua
JadeSerpentTemple\LiuFlameheart.lua
JadeSerpentTemple\ShaofDoubt.lua
StormstoutBrewery\OokOok.lua
StormstoutBrewery\Hoptallus.lua
StormstoutBrewery\YanZhu.lua
ShadoPanMonastery\GuCloudStrike.lua
ShadoPanMonastery\Snowdrift.lua
ShadoPanMonastery\ShaofViolence.lua
ShadoPanMonastery\TaranZhu.lua
GateSettingSun\Kiptilak.lua
GateSettingSun\Gadok.lua
GateSettingSun\Rimok.lua
GateSettingSun\Raigonn.lua
MogushanPalace\TrialoftheKing.lua
MogushanPalace\Gekkan.lua
MogushanPalace\WeaponmasterXin.lua
NiuzaoTemple\Jinbak.lua
NiuzaoTemple\Vojak.lua
NiuzaoTemple\Pavalak.lua
NiuzaoTemple\Neronok.lua
Scholomance\Chillheart.lua
Scholomance\JandiceBarov.lua
Scholomance\Rattlegore.lua
Scholomance\LillianVoss.lua
Scholomance\DarkmasterGandling.lua
ScarletHalls\Braun.lua
ScarletHalls\Harlan.lua
ScarletHalls\FlameweaverKoegler.lua
ScarletCathedral\ThalnosSoulrender.lua
ScarletCathedral\Korlof.lua
ScarletCathedral\Durand.lua
