## Interface: 50200
## Title: TheBurningTrade
## Author: Warbaby@163.com
## Version: 2.0
## Notes: Mage and Warlock trade assistant, interface enchanced
## Notes-zhCN: 造水助手,交易界面增强 by Warbaby (三月十二@聖光之願<冰封十字軍>)
## OptionalDeps: Skinner
locale.lua
TheBurningTrade.lua

## Title: |cff880303[网易有爱]|r TheBurningTrade
## X-Vendor: NetEase
