﻿# Originally by Nephthys of Hyjal
# Major Updates by Oozebull of Twisting Nether, Xenyr of Aszune, and Cybeloras of Aerie Peak/Detheroc/Mal'Ganis
## X-Curse-Packaged-Version: r810
## X-Curse-Project-Name: TellMeWhen
## X-Curse-Project-ID: tellmewhen
## X-Curse-Repository-ID: wow/tellmewhen/mainline

# Also dont forget to bump both of these - X-Interface is used to get the interface version in-game to check that the user is using a current client.
## Interface: 50200
# DONT FORGET TO TOC BUMP TELLMEWHEN_OPTIONS TOO!!
## X-Interface: 50200
## X-Compatible-With: 50300
## Title: TellMeWhen

## Version: 6.2.0
## Author: Cybeloras of Aerie Peak/Detheroc/Mal'Ganis

## Notes: Provides visual, auditory, and textual notifications about cooldowns, buffs, and pretty much every other element of combat.
## Notes-zhCN: 为冷却、增益/减益及其他各个方面提供视觉、听觉以及文字上的通知。
## Notes-zhTW: 為冷卻、增益/減益及其他各個方面提供視覺、聽覺以及文字上的通知。
## Notes-deDE: Bietet visuelle, akustische und schriftliche Benachrichtigungen über Cooldowns, Buffs and so ziemlich alles andere.
## Notes-koKR: 재사용 대기, 강화 효과와 그밖의 꽤 많은 것에 관해 시청각적이고도 문자적인 알림을 제공합니다.
## Notes-ruRU: Визуальные, звуковые и текстовые оповещения о готовности заклинаний, способностей, наличии баффов/дебаффов и многого другого.
## Notes-esES: Proporciona notificaciones visuales, auditivas y textuales sobre tiempos de reutilización, ventajas y básicamente cualquier otra cosa. 

## OptionalDeps: Masque, Ace3, OmniCC, tullaCC, sct, sctd, MikScrollingBattleText, Parrot, DRData-1.0, LibDogTag-3.0, LibDogTag-Unit-3.0, LibSpellRange-1.0, ElvUI, Tukui
# The per character settings are the old settings, but we still need them to upgrade to the new ones. If they aren't defined, then they will be deleted immediately
## SavedVariablesPerCharacter: TellMeWhen_Settings
## SavedVariables: TellMeWhenDB
## X-Embeds: LibStub, Ace3, AceGUI-3.0-SharedMediaWidgets, LibSharedMedia-3.0, LibDataBroker-1.1, DRData-1.0, LibDogTag-3.0, LibDogTag-Unit-3.0, LibSpellRange-1.0
## X-Category: Combat

#@no-lib-strip@
Lib\LibStub\LibStub.lua
Lib\CallbackHandler-1.0\CallbackHandler-1.0.xml
Lib\AceAddon-3.0\AceAddon-3.0.xml
Lib\AceConsole-3.0\AceConsole-3.0.xml
Lib\AceEvent-3.0\AceEvent-3.0.xml
Lib\AceTimer-3.0\AceTimer-3.0.xml
Lib\AceLocale-3.0\AceLocale-3.0.xml
Lib\AceDB-3.0\AceDB-3.0.xml
Lib\AceComm-3.0\AceComm-3.0.xml
Lib\AceSerializer-3.0\AceSerializer-3.0.xml
Lib\LibSharedMedia-3.0\lib.xml
Lib\libdatabroker-1-1\LibDataBroker-1.1.lua
Lib\DRData-1.0\DRData-1.0.xml
Lib\LibDogTag-3.0\lib.xml
Lib\LibDogTag-Unit-3.0\lib.xml
Lib\LibSpellRange-1.0\lib.xml
#@end-no-lib-strip@

Localization\TellMeWhen-enUS.lua
Localization\TellMeWhen-deDE.lua
Localization\TellMeWhen-esES.lua
Localization\TellMeWhen-esMX.lua
Localization\TellMeWhen-frFR.lua
Localization\TellMeWhen-koKR.lua
Localization\TellMeWhen-ruRU.lua
Localization\TellMeWhen-zhCN.lua
Localization\TellMeWhen-zhTW.lua
Localization\TellMeWhen-ptBR.lua
Localization\TellMeWhen-itIT.lua
Localization\StaticFormats.lua


TellMeWhen.lua

Components\includes.core.xml

LDB.lua

TellMeWhen.xml
