## Interface: 50200
## Author: Xus (Xussie of Kazzak EU)
## Title: Forte|c0500dd00Talent|r
## Notes: Forte Talent Module
## SavedVariables:
## OptionalDeps:
## Dependencies:Forte_Core

Localization.lua
Forte_Talent.lua
