## Interface: 50200
## Author: Xus (Xussie of Kazzak EU)
## Title: Forte|c919482c9Healthstone|r
## Notes: Forte Healthstone Module
## SavedVariables:
## OptionalDeps:
## Dependencies:Forte_Core

Localization.lua
Forte_Healthstone.xml
