## Interface: 50200
## Author: Xus (Xussie of Kazzak EU)
## Title: Forte|c939482c9Soulstone|r
## Notes: Forte Soulstone Module
## SavedVariables:
## OptionalDeps:
## Dependencies:Forte_Core, Forte_Casting

Localization.lua
Forte_Soulstone.xml
