## Interface: 50200
## Version: 4.3.1b
## X-Curse-Packaged-Version: 4.3.1b
## X-Curse-Project-Name: GridStatusHots
## X-Curse-Project-ID: grid-status-hots
## X-Curse-Repository-ID: wow/grid-status-hots/mainline

## Title: GridStatusHots
## Author: Bogenlampe, shadmar, Veridiac
## Notes: Separate indicator for your HoTs with timer.
## Notes-deDE: Ein eigener Indikator für eure HoTs mit Timer.
## Notes-zhTW: [Grid] 分別顯示你的 Hots：恢復，回春術，癒合及生命之花的計時與總 HoTs 值。
## Notes-zhCN: [Grid] 分别显示你的 Hots：恢复，回春术，愈合及生命绽放的计时与总 HoTs 值。
## X-Website: http://wowace.com/wiki/Grid
## X-Category: UnitFrame
## X-GridStatusModule: GridStatusHots
## RequiredDeps: Grid
## DefaultState: Enabled
## LoadOnDemand: 0

GridStatusHotsLocale_zhCN.lua
GridStatusHotsLocale_zhTW.lua
GridStatusHots.lua



## Title: |cff880303[网易有爱]|r GridStatusHots
## X-Vendor: NetEase
