﻿## Interface: 50200
## Title: GladiatorlosSA
## Notes: PVP Spell Sound Alert
## Notes-zhTW: PVP技能語音提示
## Author: Abatorlos(of Spinebreaker), DuskAshes, superk521
## SavedVariables: GladiatorlosSADB
## Version: v2.0.3b
## X-Curse-Packaged-Version: 2.0.3b
## X-Curse-Project-Name: GladiatorlosSA
## X-Curse-Project-ID: gladiatorlossa
## X-Curse-Repository-ID: wow/gladiatorlossa/mainline

embeds.xml
Locales\locales.xml

GladiatorlosSA.lua
spelllist.lua
options.lua