## Interface: 50200
## Title: BalancePowerTracker
## Version: 1.3.4
## Author: Kurohoshi (EU-Minahonda)
## SavedVariables: BalancePowerTracker_Options
## Notes: Tracker for Eclipse energy and energy predictions.

LibBalancePowerTracker-1.1\LibBalancePowerTracker-1.1.lua

ModuleLoader.lua
EclipseBar.lua
Warnings.lua
HideDefaultEclipseBar.lua
Pipe.lua
DefaultArt.lua
LocalizedCritterName.lua