## Interface: 50200
## LoadOnDemand: 1
## Title: Lib: DogTag-3.0
## Notes: A library to provide a markup syntax
## Author: ckknight
## eMail: ckknight@gmail.com
## Version: 1.0
## X-Category: Library
## X-Credit: Shefki
## OptionalDeps:
## X-Curse-Packaged-Version: r256
## X-Curse-Project-Name: LibDogTag-3.0
## X-Curse-Project-ID: libdogtag-3-0
## X-Curse-Repository-ID: wow/libdogtag-3-0/mainline

LibStub\LibStub.lua
lib.xml
