﻿## Interface: 50200
## X-Min-Interface: 50001
## Title:|cffffd200Deadly Boss Mods|r |cff69ccf0Core|r
## Title-zhCN:|cffffd200Deadly Boss Mods|r |cff69ccf0核心|r
## Title-zhTW:|cffffd200Deadly Boss Mods|r |cff69ccf0核心|r
## Notes: Deadly Boss Mods
## SavedVariablesPerCharacter: DBM_SavedOptions, DBT_SavedOptions
## LoadOnDemand: 0
## Version: 5.2.5.13
## DefaultState: enabled
## Author: Tandanu and Nitram
## X-Website: http://www.deadlybossmods.com

embeds.xml

localization.en.lua
localization.cn.lua
localization.tw.lua
DBT-Template.xml
DBT.lua
DBM-Core.lua
DBM-Arrow.lua
DBM-Flash.lua
DBM-RangeCheck.lua
DBM-BossHealth.lua
DBM-BossHealth.xml
DBM-InfoFrame.lua
DBM-HudMap.lua