## Interface: 50200
## Author: Xus (Xussie of Kazzak EU)
## Title: Forte|c0400dd00Timer|r
## Notes: ForteXorcist Spell Timer module. It gives you powerful tools to manage your spellcasting, especially damage-over-time spells!
## SavedVariables:
## OptionalDeps:Forte_Cooldown
## Dependencies:Forte_Core, Forte_Casting

Localization.lua
Forte_Timer.lua
Register.lua