## Interface: 50200

## Author : Angayelle of Nordrassil

## Title: MageBombTracker 1.0.12

## Notes: An addon for tracking Mage bombs

## Dependencies:

## SavedVariables: combumbtrackersettingstable

## version: 1.0.12

libs\LibStub\LibStub.lua

libs\CallbackHandler-1.0\CallbackHandler-1.0.xml

libs\LibSharedMedia-3.0\lib.xml

MBTLocalization.en.lua

MBTLocalization.fr.lua

MBTLocalization.cn.lua

MageBombTracker.lua

MageBombTrackeroptions.xml

MageBombTracker.xml