## Interface: 50200
## Notes: Modifies Blizzard's auction house display so it can display and sort multiple pages of items at once.
## Author: Baudzilla
## Version: 1.111v
## LoadOnDemand: 1
## LoadWith: Blizzard_AuctionUI
# RequiredDeps: Blizzard_AuctionUI
## SavedVariables: BaudAuctionConfig
BaudAuction.xml

## Title: |cff880303[网易有爱]|r BaudAuction
## X-Vendor: NetEase
